{
  "locations": {
    "hive": "CHAIN",
    "hive-engine": "DEX",
    "btc": "CHAIN",
    "eth": "CHAIN",
    "ltc": "CHAIN",
    "binance": "CEX",
    "gemini": "CEX",
    "doge": "CHAIN",
    "eos": "CHAIN",
    "matic": "CHAIN",
    "wax": "CHAIN",
    "bsc": "CHAIN",
    "splinterlands": "CHAIN",
    "kraken": "CEX",
    "binanceus": "CEX",
    "upbit": "CEX",
    "gate": "CEX",
    "mexc": "CEX"
  },
  "services": {
    "leodex": "bridge",
    "cropswap": "bridge",
    "beeswap": "bridge",
    "simpleswap": "swap"
  }
}
