[
  "BTC",
  "ETH",
  "USDT",
  "BNB",
  "XRP",
  "USDC",
  "SOL",
  "STETH",
  "ADA",
  "DOGE",
  "TON",
  "TRX",
  "LINK",
  "MATIC",
  "DOT",
  "WBTC",
  "DAI",
  "LTC",
  "SHIB",
  "BCH",
  "AVAX",
  "UNI",
  "LEO",
  "XLM",
  "TUSD",
  "OKB",
  "XRM",
  "ETC",
  "ATOM",
  "CRO",
  "FIL",
  "HBAR",
  "BUSD",
  "ICP",
  "APT",
  "LDO",
  "VET",
  "NEAR",
  "QNT",
  "INJ",
  "AAVE",
  "KAS",
  "ARB",
  "OP",
  "MNT",
  "GRT",
  "MKR",
  "RETH",
  "EGLD",
  "IMX",
  "RUNE",
  "ALGO",
  "BSV",
  "STX",
  "NEO",
  "RNDR",
  "SAND",
  "SNX",
  "THETA",
  "XTZ",
  "EOS",
  "WBT",
  "AXS",
  "MANA",
  "XDC",
  "FTM",
  "USDD",
  "RLB",
  "TWT",
  "FDUSD",
  "FRAX",
  "KAVA",
  "BGB",
  "FLOW",
  "MINA",
  "XEC",
  "CFX",
  "WEMIX",
  "GALA",
  "KCS",
  "CHZ",
  "GT",
  "FRXETH",
  "APE",
  "CHEEL",
  "IOTA",
  "CRV",
  "CAKE",
  "CWBTC",
  "RPL",
  "SUI",
  "PEPE",
  "CETH",
  "XAUT",
  "FXS",
  "TKX",
  "XRD",
  "AR",
  "PAXG",
  "USDP"
]
