<?xml version="1.0" encoding="UTF-8"?>
<!DOCTYPE svg PUBLIC "-//W3C//DTD SVG 1.1//EN" "http://www.w3.org/Graphics/SVG/1.1/DTD/svg11.dtd">
<svg xmlns="http://www.w3.org/2000/svg" version="1.1" width="500px" height="500px" style="shape-rendering:geometricPrecision; text-rendering:geometricPrecision; image-rendering:optimizeQuality; fill-rule:evenodd; clip-rule:evenodd" xmlns:xlink="http://www.w3.org/1999/xlink">
<g><path style="opacity:1" fill="#f97e00" d="M 225.5,0.5 C 231.297,6.79812 237.297,12.9648 243.5,19C 249.348,19.1728 255.015,19.6728 260.5,20.5C 240.662,19.6279 220.995,20.9612 201.5,24.5C 200.448,24.6495 199.448,24.4828 198.5,24C 193.5,19 188.5,14 183.5,9C 184.416,8.72158 185.082,8.22158 185.5,7.5C 198.539,3.65999 211.872,1.32666 225.5,0.5 Z"/></g>
<g><path style="opacity:1" fill="#fd7500" d="M 226.5,-0.5 C 241.833,-0.5 257.167,-0.5 272.5,-0.5C 288.778,1.4224 304.778,4.75573 320.5,9.5C 319.448,9.35055 318.448,9.51722 317.5,10C 328.091,20.0869 338.091,30.5869 347.5,41.5C 319.918,28.7822 290.918,21.7822 260.5,20.5C 255.015,19.6728 249.348,19.1728 243.5,19C 237.297,12.9648 231.297,6.79812 225.5,0.5C 226.167,0.5 226.5,0.166667 226.5,-0.5 Z"/></g>
<g><path style="opacity:1" fill="#fd6f00" d="M 320.5,9.5 C 380.331,27.1719 427.165,62.1719 461,114.5C 482.579,148.735 495.079,186.069 498.5,226.5C 498.66,228.199 498.494,229.866 498,231.5C 490.632,223.964 483.132,216.631 475.5,209.5C 459.826,132.771 417.16,76.7705 347.5,41.5C 338.091,30.5869 328.091,20.0869 317.5,10C 318.448,9.51722 319.448,9.35055 320.5,9.5 Z"/></g>
<g><path style="opacity:1" fill="#fc8900" d="M 185.5,7.5 C 185.082,8.22158 184.416,8.72158 183.5,9C 188.5,14 193.5,19 198.5,24C 199.448,24.4828 200.448,24.6495 201.5,24.5C 179.539,29.7135 158.539,37.7135 138.5,48.5C 134.934,43.4266 130.768,38.7599 126,34.5C 125.53,33.4232 125.697,32.4232 126.5,31.5C 144.841,20.5049 164.507,12.5049 185.5,7.5 Z"/></g>
<g><path style="opacity:1" fill="#000000" d="M 260.5,20.5 C 290.918,21.7822 319.918,28.7822 347.5,41.5C 417.16,76.7705 459.826,132.771 475.5,209.5C 477.279,219.072 478.279,228.739 478.5,238.5C 479.266,258.322 477.933,277.989 474.5,297.5C 469.233,318.957 461.567,339.624 451.5,359.5C 440.504,378.843 427.17,396.51 411.5,412.5C 397.055,426.208 381.389,438.208 364.5,448.5C 343.294,460.342 320.96,469.008 297.5,474.5C 277.989,477.933 258.322,479.266 238.5,478.5C 232.797,478.625 227.13,478.292 221.5,477.5C 200.452,474.822 180.119,469.488 160.5,461.5C 103.805,436.139 62.8053,395.139 37.5,338.5C 29.7192,318.822 24.3859,298.488 21.5,277.5C 20.9682,271.848 20.6349,266.181 20.5,260.5C 19.6279,240.662 20.9612,220.995 24.5,201.5C 29.9896,178.047 38.6563,155.714 50.5,134.5C 60.792,117.611 72.792,101.945 86.5,87.5C 102.136,72.1917 119.47,59.1917 138.5,48.5C 158.539,37.7135 179.539,29.7135 201.5,24.5C 220.995,20.9612 240.662,19.6279 260.5,20.5 Z"/></g>
<g><path style="opacity:1" fill="#fd9600" d="M 126.5,31.5 C 125.697,32.4232 125.53,33.4232 126,34.5C 130.768,38.7599 134.934,43.4266 138.5,48.5C 119.47,59.1917 102.136,72.1917 86.5,87.5C 82.1667,82.1667 77.8333,76.8333 73.5,71.5C 88.8941,55.0994 106.561,41.7661 126.5,31.5 Z"/></g>
<g><path style="opacity:0.999" fill="#fda200" d="M 73.5,71.5 C 77.8333,76.8333 82.1667,82.1667 86.5,87.5C 72.792,101.945 60.792,117.611 50.5,134.5C 45.4382,129.443 40.7715,124.11 36.5,118.5C 46.1837,100.827 58.5171,85.1603 73.5,71.5 Z"/></g>
<g><path style="opacity:1" fill="#fcfcfc" d="M 161.5,122.5 C 219.501,122.333 277.501,122.5 335.5,123C 350.2,125.553 361.534,133.053 369.5,145.5C 361.037,170.056 352.87,194.723 345,219.5C 334.333,187.5 323.667,155.5 313,123.5C 302.588,143.326 291.921,162.993 281,182.5C 270.5,162.833 260,143.167 249.5,123.5C 239,143.167 228.5,162.833 218,182.5C 207.079,162.993 196.412,143.326 186,123.5C 175.333,155.5 164.667,187.5 154,219.5C 146.126,194.712 137.96,170.045 129.5,145.5C 137.371,133.902 148.038,126.235 161.5,122.5 Z"/></g>
<g><path style="opacity:0.984" fill="#fdae00" d="M 36.5,118.5 C 40.7715,124.11 45.4382,129.443 50.5,134.5C 38.6563,155.714 29.9896,178.047 24.5,201.5C 24.6495,200.448 24.4828,199.448 24,198.5C 19,193.5 14,188.5 9,183.5C 8.61742,184.056 8.11742,184.389 7.5,184.5C 13.4032,160.707 23.0698,138.707 36.5,118.5 Z"/></g>
<g><path style="opacity:0.989" fill="#f8b400" d="M 24.5,201.5 C 20.9612,220.995 19.6279,240.662 20.5,260.5C 19.6706,252.343 19.1706,244.01 19,235.5C 13.3333,229.833 7.66667,224.167 2,218.5C 1.80912,220.708 1.30912,222.708 0.5,224.5C 1.54715,210.932 3.88048,197.599 7.5,184.5C 8.11742,184.389 8.61742,184.056 9,183.5C 14,188.5 19,193.5 24,198.5C 24.4828,199.448 24.6495,200.448 24.5,201.5 Z"/></g>
<g><path style="opacity:1" fill="#fd7900" d="M 475.5,209.5 C 483.132,216.631 490.632,223.964 498,231.5C 498.494,229.866 498.66,228.199 498.5,226.5C 498.833,226.5 499.167,226.5 499.5,226.5C 499.5,241.833 499.5,257.167 499.5,272.5C 498.833,272.5 498.5,272.833 498.5,273.5C 492.202,267.703 486.035,261.703 480,255.5C 479.827,249.652 479.327,243.985 478.5,238.5C 478.279,228.739 477.279,219.072 475.5,209.5 Z"/></g>
<g><path style="opacity:1" fill="#fdbd00" d="M 20.5,260.5 C 20.6349,266.181 20.9682,271.848 21.5,277.5C 13.8875,271.225 6.55418,264.558 -0.5,257.5C -0.5,247.167 -0.5,236.833 -0.5,226.5C 0.338246,226.158 0.67158,225.492 0.5,224.5C 1.30912,222.708 1.80912,220.708 2,218.5C 7.66667,224.167 13.3333,229.833 19,235.5C 19.1706,244.01 19.6706,252.343 20.5,260.5 Z"/></g>
<g><path style="opacity:1" fill="#f97e00" d="M 478.5,238.5 C 479.327,243.985 479.827,249.652 480,255.5C 486.035,261.703 492.202,267.703 498.5,273.5C 497.673,287.128 495.34,300.461 491.5,313.5C 490.778,313.918 490.278,314.584 490,315.5C 485,310.5 480,305.5 475,300.5C 474.517,299.552 474.351,298.552 474.5,297.5C 477.933,277.989 479.266,258.322 478.5,238.5 Z"/></g>
<g><path style="opacity:0.999" fill="#fcc200" d="M -0.5,257.5 C 6.55418,264.558 13.8875,271.225 21.5,277.5C 24.3859,298.488 29.7192,318.822 37.5,338.5C 27.2539,329.758 17.4205,320.425 8,310.5C 7.53566,311.094 7.36899,311.761 7.5,312.5C 3.75643,299.37 1.08976,286.036 -0.5,272.5C -0.5,267.5 -0.5,262.5 -0.5,257.5 Z"/></g>
<g><path style="opacity:1" fill="#fdc900" d="M 37.5,338.5 C 62.8053,395.139 103.805,436.139 160.5,461.5C 169.242,471.746 178.575,481.579 188.5,491C 187.906,491.464 187.239,491.631 186.5,491.5C 104.215,468.757 47.0486,417.757 15,338.5C 11.7815,330.014 9.28148,321.348 7.5,312.5C 7.36899,311.761 7.53566,311.094 8,310.5C 17.4205,320.425 27.2539,329.758 37.5,338.5 Z"/></g>
<g><path style="opacity:1" fill="#fbfbfb" d="M 153.5,278.5 C 164.78,310.507 175.614,342.84 186,375.5C 196.412,355.674 207.079,336.007 218,316.5C 228.5,336.167 239,355.833 249.5,375.5C 260,355.833 270.5,336.167 281,316.5C 291.921,336.007 302.588,355.674 313,375.5C 323.484,343.049 334.15,310.716 345,278.5C 353.068,303.537 361.234,328.537 369.5,353.5C 361.534,365.947 350.2,373.447 335.5,376C 277.5,376.667 219.5,376.667 161.5,376C 147.814,372.668 137.147,365.168 129.5,353.5C 137.908,328.61 145.908,303.61 153.5,278.5 Z"/></g>
<g><path style="opacity:1" fill="#fc8a00" d="M 474.5,297.5 C 474.351,298.552 474.517,299.552 475,300.5C 480,305.5 485,310.5 490,315.5C 490.278,314.584 490.778,313.918 491.5,313.5C 486.495,334.493 478.495,354.159 467.5,372.5C 466.577,373.303 465.577,373.47 464.5,373C 459.963,368.631 455.63,364.131 451.5,359.5C 461.567,339.624 469.233,318.957 474.5,297.5 Z"/></g>
<g><path style="opacity:1" fill="#fd9600" d="M 451.5,359.5 C 455.63,364.131 459.963,368.631 464.5,373C 465.577,373.47 466.577,373.303 467.5,372.5C 457.234,392.439 443.901,410.106 427.5,425.5C 422.167,421.167 416.833,416.833 411.5,412.5C 427.17,396.51 440.504,378.843 451.5,359.5 Z"/></g>
<g><path style="opacity:0.999" fill="#fda200" d="M 411.5,412.5 C 416.833,416.833 422.167,421.167 427.5,425.5C 413.84,440.483 398.173,452.816 380.5,462.5C 374.89,458.228 369.557,453.562 364.5,448.5C 381.389,438.208 397.055,426.208 411.5,412.5 Z"/></g>
<g><path style="opacity:0.999" fill="#fdc300" d="M 160.5,461.5 C 180.119,469.488 200.452,474.822 221.5,477.5C 227.775,485.112 234.442,492.446 241.5,499.5C 236.5,499.5 231.5,499.5 226.5,499.5C 212.964,497.91 199.63,495.244 186.5,491.5C 187.239,491.631 187.906,491.464 188.5,491C 178.575,481.579 169.242,471.746 160.5,461.5 Z"/></g>
<g><path style="opacity:0.984" fill="#fcae00" d="M 364.5,448.5 C 369.557,453.562 374.89,458.228 380.5,462.5C 360.293,475.93 338.293,485.597 314.5,491.5C 314.611,490.883 314.944,490.383 315.5,490C 310.5,485 305.5,480 300.5,475C 299.552,474.517 298.552,474.351 297.5,474.5C 320.96,469.008 343.294,460.342 364.5,448.5 Z"/></g>
<g><path style="opacity:0.989" fill="#f8b300" d="M 297.5,474.5 C 298.552,474.351 299.552,474.517 300.5,475C 305.5,480 310.5,485 315.5,490C 314.944,490.383 314.611,490.883 314.5,491.5C 301.401,495.12 288.068,497.453 274.5,498.5C 276.292,497.691 278.292,497.191 280.5,497C 274.833,491.333 269.167,485.667 263.5,480C 254.99,479.829 246.657,479.329 238.5,478.5C 258.322,479.266 277.989,477.933 297.5,474.5 Z"/></g>
<g><path style="opacity:1" fill="#febd00" d="M 221.5,477.5 C 227.13,478.292 232.797,478.625 238.5,478.5C 246.657,479.329 254.99,479.829 263.5,480C 269.167,485.667 274.833,491.333 280.5,497C 278.292,497.191 276.292,497.691 274.5,498.5C 273.508,498.328 272.842,498.662 272.5,499.5C 262.167,499.5 251.833,499.5 241.5,499.5C 234.442,492.446 227.775,485.112 221.5,477.5 Z"/></g>
</svg>
